{
  "_id": "ABCDEFGHIJKLMNOP1234567890",
  "additional_properties": {
    "fullSizeResizeUrl": "/resizer/Q-SE26Zj-KDJpStC9436ukDZXyQ=/arc-anglerfish-arc2-sandbox-sandbox-test/ABCDEFGHIJKLMNOP1234567890.jpg",
    "mime_type": "image/jpeg",
    "originalName": "test.jpg",
    "originalUrl": "https://server.images.arcpublishing.com/sandbox.test/ABCDEFGHIJKLMNOP1234567890.jpg",
    "proxyUrl": "/resizer/Q-SE26Zj-KDJpStC9436ukDZXyQ=/arc-anglerfish-arc2-sandbox-sandbox-test/ABCDEFGHIJKLMNOP1234567890.jpg",
    "resizeUrl": "/resizer/Q-SE26Zj-KDJpStC9436ukDZXyQ=/arc-anglerfish-arc2-sandbox-sandbox-test/ABCDEFGHIJKLMNOP1234567890.jpg",
    "restricted": false,
    "version": 0
  },
  "address": {},
  "created_date": "2021-03-04T18:17:08Z",
  "height": 658,
  "last_updated_date": "2021-03-04T18:17:08Z",
  "licensable": false,
  "type": "image",
  "url": "https://server.images.arcpublishing.com/sandbox.test/ABCDEFGHIJKLMNOP1234567890.jpg",
  "version": "0.10.3",
  "width": 1170
}
