{
  "status": 400,
  "errors": [
    "No website was found with ID: test",
    "The section id in the URL and the data being sent do not match.",
    "The `_id` field on a section must begin with '/'."
  ]
}
