{
  "q_results": [
    {
      "_id": "/test",
      "site_topper": {
        "site_logo_image": null
      },
      "site": {
        "site_title": null,
        "pagebuilder_path_for_native_apps": null,
        "site_url": null,
        "site_tagline": null,
        "site_description": null,
        "site_about": null,
        "site_keywords": null
      },
      "social": {
        "twitter": null,
        "instagram": null,
        "rss": null,
        "facebook": null,
        "google": null
      },
      "navigation": {
        "nav_title": "Test"
      },
      "name": "Test",
      "_website": "test",
      "parent": {
        "default": "/",
        "testHierarchy": null
      },
      "ancestors": {
        "default": [
          "/"
        ],
        "testHierarchy": []
      },
      "_admin": {
        "alias_ids": [
          "/politica"
        ]
      },
      "inactive": false,
      "node_type": "section",
      "order": {
        "default": 1001
      }
    }
  ],
  "count": 1,
  "total_count": 1,
  "limit": 100,
  "offset": 0
}
